C:\Users\SameTLp\Desktop\com.vodafone.testauto.ui\src\main\java\com\keytorcteknoloji\uitestautomation\runtest\TestRunner.java
C:\Users\SameTLp\Desktop\com.vodafone.testauto.ui\src\main\java\com\keytorcteknoloji\uitestautomation\steps\StepDefination.java
C:\Users\SameTLp\Desktop\com.vodafone.testauto.ui\src\main\java\com\keytorcteknoloji\uitestautomation\UITestAutomationApplication.java
